{
    "ndk_module_path" :[
        "C:/ProgramData/cocos/editors/Creator/2.4.6/resources/cocos2d-x",
        "C:/ProgramData/cocos/editors/Creator/2.4.6/resources/cocos2d-x/cocos",
        "C:/ProgramData/cocos/editors/Creator/2.4.6/resources/cocos2d-x/external"
    ],
    "copy_resources": []
}
